R Training - Data Types, Structures and Wrangling
…
library(dplyr)
library(palmerpenguins)

filter(): pick rows based on values of observations.

Example
Notes

filter(penguins, 
       species == "Gentoo", 
       bill_length_mm > 48 & bill_depth_mm > 15, 
       !is.na(sex))

# A tibble: 39 × 8
   species island bill_length_mm bill_depth_mm flipper_len…¹ body_…² sex    year
   <fct>   <fct>           <dbl>         <dbl>         <int>   <int> <fct> <int>
 1 Gentoo  Biscoe           50            16.3           230    5700 male   2007
 2 Gentoo  Biscoe           50            15.2           218    5700 male   2007
 3 Gentoo  Biscoe           49            16.1           216    5550 male   2007
 4 Gentoo  Biscoe           49.3          15.7           217    5850 male   2007
 5 Gentoo  Biscoe           49.2          15.2           221    6300 male   2007
 6 Gentoo  Biscoe           48.7          15.1           222    5350 male   2007
 7 Gentoo  Biscoe           50            15.3           220    5550 male   2007
 8 Gentoo  Biscoe           59.6          17             230    6050 male   2007
 9 Gentoo  Biscoe           48.4          16.3           220    5400 male   2008
10 Gentoo  Biscoe           48.7          15.7           208    5350 male   2008
# … with 29 more rows, and abbreviated variable names ¹​flipper_length_mm,
#   ²​body_mass_g
…
Missing indicator
e.g. is.na(x)

select(): select variables (columns) in a dataset

Example 1
Example 2
Example 3
Example 4
Note

select(penguins, bill_length_mm, bill_depth_mm)

# A tibble: 344 × 2
   bill_length_mm bill_depth_mm
            <dbl>         <dbl>
 1           39.1          18.7
 2           39.5          17.4
 3           40.3          18  
 4           NA            NA  
 5           36.7          19.3
 6           39.3          20.6
 7           38.9          17.8
 8           39.2          19.6
 9           34.1          18.1
10           42            20.2
# … with 334 more rows

select(penguins, bill_length_mm:body_mass_g)

# A tibble: 344 × 4
   bill_length_mm bill_depth_mm flipper_length_mm body_mass_g
            <dbl>         <dbl>             <int>       <int>
 1           39.1          18.7               181        3750
 2           39.5          17.4               186        3800
 3           40.3          18                 195        3250
 4           NA            NA                  NA          NA
 5           36.7          19.3               193        3450
 6           39.3          20.6               190        3650
 7           38.9          17.8               181        3625
 8           39.2          19.6               195        4675
 9           34.1          18.1               193        3475
10           42            20.2               190        4250
# … with 334 more rows

select(penguins, starts_with("bill"))

# A tibble: 344 × 2
   bill_length_mm bill_depth_mm
            <dbl>         <dbl>
 1           39.1          18.7
 2           39.5          17.4
 3           40.3          18  
 4           NA            NA  
 5           36.7          19.3
 6           39.3          20.6
 7           38.9          17.8
 8           39.2          19.6
 9           34.1          18.1
10           42            20.2
# … with 334 more rows

select(penguins, where(is.numeric))

# A tibble: 344 × 5
   bill_length_mm bill_depth_mm flipper_length_mm body_mass_g  year
            <dbl>         <dbl>             <int>       <int> <int>
 1           39.1          18.7               181        3750  2007
 2           39.5          17.4               186        3800  2007
 3           40.3          18                 195        3250  2007
 4           NA            NA                  NA          NA  2007
 5           36.7          19.3               193        3450  2007
 6           39.3          20.6               190        3650  2007
 7           38.9          17.8               181        3625  2007
 8           39.2          19.6               195        4675  2007
 9           34.1          18.1               193        3475  2007
10           42            20.2               190        4250  2007
# … with 334 more rows
…
[1] "a b c"

Different placeholder (. vs _) and with native pipe need a named argument

arrange(): change the ordering of rows

Example 1
Example 2
Example 3

penguins |>
  select(species, sex, flipper_length_mm) |>
  arrange(flipper_length_mm)

# A tibble: 344 × 3
   species   sex    flipper_length_mm
   <fct>     <fct>              <int>
 1 Adelie    female               172
 2 Adelie    female               174
 3 Adelie    female               176
 4 Adelie    female               178
 5 Adelie    male                 178
 6 Adelie    female               178
 7 Chinstrap female               178
 8 Adelie    <NA>                 179
 9 Adelie    <NA>                 180
10 Adelie    male                 180
# … with 334 more rows

penguins |>
  select(species, sex, flipper_length_mm) |>
  arrange(species, flipper_length_mm)

# A tibble: 344 × 3
   species sex    flipper_length_mm
   <fct>   <fct>              <int>
 1 Adelie  female               172
 2 Adelie  female               174
 3 Adelie  female               176
 4 Adelie  female               178
 5 Adelie  male                 178
 6 Adelie  female               178
 7 Adelie  <NA>                 179
 8 Adelie  <NA>                 180
 9 Adelie  male                 180
10 Adelie  male                 180
# … with 334 more rows

penguins |>
  select(species, sex, flipper_length_mm) |>
  arrange(desc(flipper_length_mm))

# A tibble: 344 × 3
   species sex   flipper_length_mm
   <fct>   <fct>             <int>
 1 Gentoo  male                231
 2 Gentoo  male                230
 3 Gentoo  male                230
 4 Gentoo  male                230
 5 Gentoo  male                230
 6 Gentoo  male                230
 7 Gentoo  male                230
 8 Gentoo  male                230
 9 Gentoo  male                229
10 Gentoo  male                229
# … with 334 more rows

mutate(): create and modify columns

Example 1
Example 2
Example 3

penguins |>
  select(bill_length_mm) |>
  mutate(bill_length_mm_sq = bill_length_mm^2)

# A tibble: 344 × 2
   bill_length_mm bill_length_mm_sq
            <dbl>             <dbl>
 1           39.1             1529.
 2           39.5             1560.
 3           40.3             1624.
 4           NA                 NA 
 5           36.7             1347.
 6           39.3             1544.
 7           38.9             1513.
 8           39.2             1537.
 9           34.1             1163.
10           42               1764 
# … with 334 more rows

penguins |>
  filter(species == "Gentoo") |>
  select(sex, flipper_length_mm) |>
  mutate(size = if_else(flipper_length_mm > 217, "big", "small"))

# A tibble: 124 × 3
   sex    flipper_length_mm size 
   <fct>              <int> <chr>
 1 female               211 small
 2 male                 230 big  
 3 female               210 small
 4 male                 218 big  
 5 male                 215 small
 6 female               210 small
 7 female               211 small
 8 male                 219 big  
 9 female               209 small
10 male                 215 small
# … with 114 more rows

penguins |>
  select(bill_length_mm) |>
  filter(!is.na(bill_length_mm)) |>
  mutate(bill_length_mm_cumsum = cumsum(bill_length_mm))

# A tibble: 342 × 2
   bill_length_mm bill_length_mm_cumsum
            <dbl>                 <dbl>
 1           39.1                  39.1
 2           39.5                  78.6
 3           40.3                 119. 
 4           36.7                 156. 
 5           39.3                 195. 
 6           38.9                 234. 
 7           39.2                 273  
 8           34.1                 307. 
 9           42                   349. 
10           37.8                 387. 
# … with 332 more rows
…
